%YAML 1.1
%TAG !u! tag:unity3d.com,2011:
--- !u!74 &7400000
AnimationClip:
  m_ObjectHideFlags: 0
  m_PrefabParentObject: {fileID: 0}
  m_PrefabInternal: {fileID: 0}
  m_Name: Explosion
  serializedVersion: 4
  m_AnimationType: 2
  m_Compressed: 0
  m_UseHighQualityCurve: 1
  m_RotationCurves: []
  m_CompressedRotationCurves: []
  m_PositionCurves: []
  m_ScaleCurves: []
  m_FloatCurves: []
  m_PPtrCurves:
  - curve:
    - time: 0
      value: {fileID: 21300000, guid: 3b8218395aa17e5458a1547c4ab41f8f, type: 3}
    - time: .0833333358
      value: {fileID: 21300002, guid: 3b8218395aa17e5458a1547c4ab41f8f, type: 3}
    - time: .166666672
      value: {fileID: 21300004, guid: 3b8218395aa17e5458a1547c4ab41f8f, type: 3}
    - time: .25
      value: {fileID: 21300006, guid: 3b8218395aa17e5458a1547c4ab41f8f, type: 3}
    - time: .333333343
      value: {fileID: 21300008, guid: 3b8218395aa17e5458a1547c4ab41f8f, type: 3}
    - time: .416666657
      value: {fileID: 21300010, guid: 3b8218395aa17e5458a1547c4ab41f8f, type: 3}
    - time: .5
      value: {fileID: 21300012, guid: 3b8218395aa17e5458a1547c4ab41f8f, type: 3}
    - time: .583333313
      value: {fileID: 21300014, guid: 3b8218395aa17e5458a1547c4ab41f8f, type: 3}
    - time: .666666687
      value: {fileID: 21300016, guid: 3b8218395aa17e5458a1547c4ab41f8f, type: 3}
    - time: .75
      value: {fileID: 21300018, guid: 3b8218395aa17e5458a1547c4ab41f8f, type: 3}
    - time: .833333313
      value: {fileID: 21300020, guid: 3b8218395aa17e5458a1547c4ab41f8f, type: 3}
    - time: .916666687
      value: {fileID: 21300022, guid: 3b8218395aa17e5458a1547c4ab41f8f, type: 3}
    - time: 1
      value: {fileID: 21300024, guid: 3b8218395aa17e5458a1547c4ab41f8f, type: 3}
    - time: 1.08333337
      value: {fileID: 21300026, guid: 3b8218395aa17e5458a1547c4ab41f8f, type: 3}
    - time: 1.16666663
      value: {fileID: 21300028, guid: 3b8218395aa17e5458a1547c4ab41f8f, type: 3}
    - time: 1.25
      value: {fileID: 21300030, guid: 3b8218395aa17e5458a1547c4ab41f8f, type: 3}
    - time: 1.33333337
      value: {fileID: 21300032, guid: 3b8218395aa17e5458a1547c4ab41f8f, type: 3}
    - time: 1.41666663
      value: {fileID: 21300034, guid: 3b8218395aa17e5458a1547c4ab41f8f, type: 3}
    - time: 1.5
      value: {fileID: 21300036, guid: 3b8218395aa17e5458a1547c4ab41f8f, type: 3}
    - time: 1.58333337
      value: {fileID: 21300038, guid: 3b8218395aa17e5458a1547c4ab41f8f, type: 3}
    - time: 1.66666663
      value: {fileID: 21300040, guid: 3b8218395aa17e5458a1547c4ab41f8f, type: 3}
    - time: 1.75
      value: {fileID: 21300042, guid: 3b8218395aa17e5458a1547c4ab41f8f, type: 3}
    - time: 1.83333337
      value: {fileID: 21300044, guid: 3b8218395aa17e5458a1547c4ab41f8f, type: 3}
    - time: 1.91666663
      value: {fileID: 21300046, guid: 3b8218395aa17e5458a1547c4ab41f8f, type: 3}
    - time: 2
      value: {fileID: 21300048, guid: 3b8218395aa17e5458a1547c4ab41f8f, type: 3}
    - time: 2.08333325
      value: {fileID: 21300050, guid: 3b8218395aa17e5458a1547c4ab41f8f, type: 3}
    - time: 2.16666675
      value: {fileID: 21300052, guid: 3b8218395aa17e5458a1547c4ab41f8f, type: 3}
    - time: 2.25
      value: {fileID: 21300054, guid: 3b8218395aa17e5458a1547c4ab41f8f, type: 3}
    - time: 2.33333325
      value: {fileID: 21300056, guid: 3b8218395aa17e5458a1547c4ab41f8f, type: 3}
    - time: 2.41666675
      value: {fileID: 21300058, guid: 3b8218395aa17e5458a1547c4ab41f8f, type: 3}
    - time: 2.5
      value: {fileID: 21300060, guid: 3b8218395aa17e5458a1547c4ab41f8f, type: 3}
    - time: 2.58333325
      value: {fileID: 21300062, guid: 3b8218395aa17e5458a1547c4ab41f8f, type: 3}
    - time: 2.66666675
      value: {fileID: 21300064, guid: 3b8218395aa17e5458a1547c4ab41f8f, type: 3}
    - time: 2.75
      value: {fileID: 21300066, guid: 3b8218395aa17e5458a1547c4ab41f8f, type: 3}
    - time: 2.83333325
      value: {fileID: 21300068, guid: 3b8218395aa17e5458a1547c4ab41f8f, type: 3}
    - time: 2.91666675
      value: {fileID: 21300070, guid: 3b8218395aa17e5458a1547c4ab41f8f, type: 3}
    - time: 3
      value: {fileID: 21300072, guid: 3b8218395aa17e5458a1547c4ab41f8f, type: 3}
    - time: 3.08333325
      value: {fileID: 21300074, guid: 3b8218395aa17e5458a1547c4ab41f8f, type: 3}
    - time: 3.16666675
      value: {fileID: 21300076, guid: 3b8218395aa17e5458a1547c4ab41f8f, type: 3}
    - time: 3.25
      value: {fileID: 21300078, guid: 3b8218395aa17e5458a1547c4ab41f8f, type: 3}
    - time: 3.33333325
      value: {fileID: 21300080, guid: 3b8218395aa17e5458a1547c4ab41f8f, type: 3}
    - time: 3.41666675
      value: {fileID: 21300082, guid: 3b8218395aa17e5458a1547c4ab41f8f, type: 3}
    - time: 3.5
      value: {fileID: 21300084, guid: 3b8218395aa17e5458a1547c4ab41f8f, type: 3}
    - time: 3.58333325
      value: {fileID: 21300086, guid: 3b8218395aa17e5458a1547c4ab41f8f, type: 3}
    - time: 3.66666675
      value: {fileID: 21300088, guid: 3b8218395aa17e5458a1547c4ab41f8f, type: 3}
    - time: 3.75
      value: {fileID: 21300090, guid: 3b8218395aa17e5458a1547c4ab41f8f, type: 3}
    - time: 3.83333325
      value: {fileID: 21300092, guid: 3b8218395aa17e5458a1547c4ab41f8f, type: 3}
    - time: 3.91666675
      value: {fileID: 21300094, guid: 3b8218395aa17e5458a1547c4ab41f8f, type: 3}
    - time: 4
      value: {fileID: 21300096, guid: 3b8218395aa17e5458a1547c4ab41f8f, type: 3}
    - time: 4.08333349
      value: {fileID: 21300098, guid: 3b8218395aa17e5458a1547c4ab41f8f, type: 3}
    - time: 4.16666651
      value: {fileID: 21300100, guid: 3b8218395aa17e5458a1547c4ab41f8f, type: 3}
    - time: 4.25
      value: {fileID: 21300102, guid: 3b8218395aa17e5458a1547c4ab41f8f, type: 3}
    - time: 4.33333349
      value: {fileID: 21300104, guid: 3b8218395aa17e5458a1547c4ab41f8f, type: 3}
    - time: 4.41666651
      value: {fileID: 21300106, guid: 3b8218395aa17e5458a1547c4ab41f8f, type: 3}
    - time: 4.5
      value: {fileID: 21300108, guid: 3b8218395aa17e5458a1547c4ab41f8f, type: 3}
    - time: 4.58333349
      value: {fileID: 21300110, guid: 3b8218395aa17e5458a1547c4ab41f8f, type: 3}
    - time: 4.66666651
      value: {fileID: 21300112, guid: 3b8218395aa17e5458a1547c4ab41f8f, type: 3}
    - time: 4.75
      value: {fileID: 21300114, guid: 3b8218395aa17e5458a1547c4ab41f8f, type: 3}
    - time: 4.83333349
      value: {fileID: 21300116, guid: 3b8218395aa17e5458a1547c4ab41f8f, type: 3}
    - time: 4.91666651
      value: {fileID: 21300118, guid: 3b8218395aa17e5458a1547c4ab41f8f, type: 3}
    - time: 5
      value: {fileID: 21300120, guid: 3b8218395aa17e5458a1547c4ab41f8f, type: 3}
    - time: 5.08333349
      value: {fileID: 21300122, guid: 3b8218395aa17e5458a1547c4ab41f8f, type: 3}
    - time: 5.16666651
      value: {fileID: 21300124, guid: 3b8218395aa17e5458a1547c4ab41f8f, type: 3}
    - time: 5.25
      value: {fileID: 21300126, guid: 3b8218395aa17e5458a1547c4ab41f8f, type: 3}
    - time: 5.33333349
      value: {fileID: 21300128, guid: 3b8218395aa17e5458a1547c4ab41f8f, type: 3}
    - time: 5.41666651
      value: {fileID: 21300130, guid: 3b8218395aa17e5458a1547c4ab41f8f, type: 3}
    - time: 5.5
      value: {fileID: 21300132, guid: 3b8218395aa17e5458a1547c4ab41f8f, type: 3}
    - time: 5.58333349
      value: {fileID: 21300134, guid: 3b8218395aa17e5458a1547c4ab41f8f, type: 3}
    - time: 5.66666651
      value: {fileID: 21300136, guid: 3b8218395aa17e5458a1547c4ab41f8f, type: 3}
    - time: 5.75
      value: {fileID: 21300138, guid: 3b8218395aa17e5458a1547c4ab41f8f, type: 3}
    - time: 5.83333349
      value: {fileID: 21300140, guid: 3b8218395aa17e5458a1547c4ab41f8f, type: 3}
    - time: 5.91666651
      value: {fileID: 21300142, guid: 3b8218395aa17e5458a1547c4ab41f8f, type: 3}
    - time: 6
      value: {fileID: 21300144, guid: 3b8218395aa17e5458a1547c4ab41f8f, type: 3}
    - time: 6.08333349
      value: {fileID: 21300146, guid: 3b8218395aa17e5458a1547c4ab41f8f, type: 3}
    attribute: m_Sprite
    path: 
    classID: 212
    script: {fileID: 0}
  m_SampleRate: 12
  m_WrapMode: 0
  m_Bounds:
    m_Center: {x: 0, y: 0, z: 0}
    m_Extent: {x: 0, y: 0, z: 0}
  m_ClipBindingConstant:
    genericBindings:
    - path: 0
      attribute: 0
      script: {fileID: 0}
      classID: 212
      customType: 23
      isPPtrCurve: 1
    pptrCurveMapping:
    - {fileID: 21300000, guid: 3b8218395aa17e5458a1547c4ab41f8f, type: 3}
    - {fileID: 21300002, guid: 3b8218395aa17e5458a1547c4ab41f8f, type: 3}
    - {fileID: 21300004, guid: 3b8218395aa17e5458a1547c4ab41f8f, type: 3}
    - {fileID: 21300006, guid: 3b8218395aa17e5458a1547c4ab41f8f, type: 3}
    - {fileID: 21300008, guid: 3b8218395aa17e5458a1547c4ab41f8f, type: 3}
    - {fileID: 21300010, guid: 3b8218395aa17e5458a1547c4ab41f8f, type: 3}
    - {fileID: 21300012, guid: 3b8218395aa17e5458a1547c4ab41f8f, type: 3}
    - {fileID: 21300014, guid: 3b8218395aa17e5458a1547c4ab41f8f, type: 3}
    - {fileID: 21300016, guid: 3b8218395aa17e5458a1547c4ab41f8f, type: 3}
    - {fileID: 21300018, guid: 3b8218395aa17e5458a1547c4ab41f8f, type: 3}
    - {fileID: 21300020, guid: 3b8218395aa17e5458a1547c4ab41f8f, type: 3}
    - {fileID: 21300022, guid: 3b8218395aa17e5458a1547c4ab41f8f, type: 3}
    - {fileID: 21300024, guid: 3b8218395aa17e5458a1547c4ab41f8f, type: 3}
    - {fileID: 21300026, guid: 3b8218395aa17e5458a1547c4ab41f8f, type: 3}
    - {fileID: 21300028, guid: 3b8218395aa17e5458a1547c4ab41f8f, type: 3}
    - {fileID: 21300030, guid: 3b8218395aa17e5458a1547c4ab41f8f, type: 3}
    - {fileID: 21300032, guid: 3b8218395aa17e5458a1547c4ab41f8f, type: 3}
    - {fileID: 21300034, guid: 3b8218395aa17e5458a1547c4ab41f8f, type: 3}
    - {fileID: 21300036, guid: 3b8218395aa17e5458a1547c4ab41f8f, type: 3}
    - {fileID: 21300038, guid: 3b8218395aa17e5458a1547c4ab41f8f, type: 3}
    - {fileID: 21300040, guid: 3b8218395aa17e5458a1547c4ab41f8f, type: 3}
    - {fileID: 21300042, guid: 3b8218395aa17e5458a1547c4ab41f8f, type: 3}
    - {fileID: 21300044, guid: 3b8218395aa17e5458a1547c4ab41f8f, type: 3}
    - {fileID: 21300046, guid: 3b8218395aa17e5458a1547c4ab41f8f, type: 3}
    - {fileID: 21300048, guid: 3b8218395aa17e5458a1547c4ab41f8f, type: 3}
    - {fileID: 21300050, guid: 3b8218395aa17e5458a1547c4ab41f8f, type: 3}
    - {fileID: 21300052, guid: 3b8218395aa17e5458a1547c4ab41f8f, type: 3}
    - {fileID: 21300054, guid: 3b8218395aa17e5458a1547c4ab41f8f, type: 3}
    - {fileID: 21300056, guid: 3b8218395aa17e5458a1547c4ab41f8f, type: 3}
    - {fileID: 21300058, guid: 3b8218395aa17e5458a1547c4ab41f8f, type: 3}
    - {fileID: 21300060, guid: 3b8218395aa17e5458a1547c4ab41f8f, type: 3}
    - {fileID: 21300062, guid: 3b8218395aa17e5458a1547c4ab41f8f, type: 3}
    - {fileID: 21300064, guid: 3b8218395aa17e5458a1547c4ab41f8f, type: 3}
    - {fileID: 21300066, guid: 3b8218395aa17e5458a1547c4ab41f8f, type: 3}
    - {fileID: 21300068, guid: 3b8218395aa17e5458a1547c4ab41f8f, type: 3}
    - {fileID: 21300070, guid: 3b8218395aa17e5458a1547c4ab41f8f, type: 3}
    - {fileID: 21300072, guid: 3b8218395aa17e5458a1547c4ab41f8f, type: 3}
    - {fileID: 21300074, guid: 3b8218395aa17e5458a1547c4ab41f8f, type: 3}
    - {fileID: 21300076, guid: 3b8218395aa17e5458a1547c4ab41f8f, type: 3}
    - {fileID: 21300078, guid: 3b8218395aa17e5458a1547c4ab41f8f, type: 3}
    - {fileID: 21300080, guid: 3b8218395aa17e5458a1547c4ab41f8f, type: 3}
    - {fileID: 21300082, guid: 3b8218395aa17e5458a1547c4ab41f8f, type: 3}
    - {fileID: 21300084, guid: 3b8218395aa17e5458a1547c4ab41f8f, type: 3}
    - {fileID: 21300086, guid: 3b8218395aa17e5458a1547c4ab41f8f, type: 3}
    - {fileID: 21300088, guid: 3b8218395aa17e5458a1547c4ab41f8f, type: 3}
    - {fileID: 21300090, guid: 3b8218395aa17e5458a1547c4ab41f8f, type: 3}
    - {fileID: 21300092, guid: 3b8218395aa17e5458a1547c4ab41f8f, type: 3}
    - {fileID: 21300094, guid: 3b8218395aa17e5458a1547c4ab41f8f, type: 3}
    - {fileID: 21300096, guid: 3b8218395aa17e5458a1547c4ab41f8f, type: 3}
    - {fileID: 21300098, guid: 3b8218395aa17e5458a1547c4ab41f8f, type: 3}
    - {fileID: 21300100, guid: 3b8218395aa17e5458a1547c4ab41f8f, type: 3}
    - {fileID: 21300102, guid: 3b8218395aa17e5458a1547c4ab41f8f, type: 3}
    - {fileID: 21300104, guid: 3b8218395aa17e5458a1547c4ab41f8f, type: 3}
    - {fileID: 21300106, guid: 3b8218395aa17e5458a1547c4ab41f8f, type: 3}
    - {fileID: 21300108, guid: 3b8218395aa17e5458a1547c4ab41f8f, type: 3}
    - {fileID: 21300110, guid: 3b8218395aa17e5458a1547c4ab41f8f, type: 3}
    - {fileID: 21300112, guid: 3b8218395aa17e5458a1547c4ab41f8f, type: 3}
    - {fileID: 21300114, guid: 3b8218395aa17e5458a1547c4ab41f8f, type: 3}
    - {fileID: 21300116, guid: 3b8218395aa17e5458a1547c4ab41f8f, type: 3}
    - {fileID: 21300118, guid: 3b8218395aa17e5458a1547c4ab41f8f, type: 3}
    - {fileID: 21300120, guid: 3b8218395aa17e5458a1547c4ab41f8f, type: 3}
    - {fileID: 21300122, guid: 3b8218395aa17e5458a1547c4ab41f8f, type: 3}
    - {fileID: 21300124, guid: 3b8218395aa17e5458a1547c4ab41f8f, type: 3}
    - {fileID: 21300126, guid: 3b8218395aa17e5458a1547c4ab41f8f, type: 3}
    - {fileID: 21300128, guid: 3b8218395aa17e5458a1547c4ab41f8f, type: 3}
    - {fileID: 21300130, guid: 3b8218395aa17e5458a1547c4ab41f8f, type: 3}
    - {fileID: 21300132, guid: 3b8218395aa17e5458a1547c4ab41f8f, type: 3}
    - {fileID: 21300134, guid: 3b8218395aa17e5458a1547c4ab41f8f, type: 3}
    - {fileID: 21300136, guid: 3b8218395aa17e5458a1547c4ab41f8f, type: 3}
    - {fileID: 21300138, guid: 3b8218395aa17e5458a1547c4ab41f8f, type: 3}
    - {fileID: 21300140, guid: 3b8218395aa17e5458a1547c4ab41f8f, type: 3}
    - {fileID: 21300142, guid: 3b8218395aa17e5458a1547c4ab41f8f, type: 3}
    - {fileID: 21300144, guid: 3b8218395aa17e5458a1547c4ab41f8f, type: 3}
    - {fileID: 21300146, guid: 3b8218395aa17e5458a1547c4ab41f8f, type: 3}
  m_AnimationClipSettings:
    serializedVersion: 2
    m_StartTime: 0
    m_StopTime: 6.16666651
    m_OrientationOffsetY: 0
    m_Level: 0
    m_CycleOffset: 0
    m_LoopTime: 0
    m_LoopBlend: 0
    m_LoopBlendOrientation: 0
    m_LoopBlendPositionY: 0
    m_LoopBlendPositionXZ: 0
    m_KeepOriginalOrientation: 0
    m_KeepOriginalPositionY: 1
    m_KeepOriginalPositionXZ: 0
    m_HeightFromFeet: 0
    m_Mirror: 0
  m_EditorCurves: []
  m_EulerEditorCurves: []
  m_Events: []
